BIOL 3100
…
A Broad View of the Data

A major hurdle in utilizing this data set for analysis was the lack
of consistency. It took an INCREDIBLY long time to organize country
names and activities specifically. Another thing to note is that not all
country names are listed as countries recognized by the United Nations,
but for all intents and purposes here, we are only looking at the top
few notorious countries known for attacks.

## # A tibble: 38,903 × 8
##    date         year type         country       area     activ…¹ fatal…² species
##    <chr>       <dbl> <chr>        <chr>         <chr>    <chr>   <chr>   <chr>  
##  1 22-Mar-2023  2023 Unprovoked   AUSTRALIA     Western… <NA>    N       Nurse …
##  2 19-Mar-2023  2023 Unprovoked   USA           Hawaii   swimmi… N       <NA>   
##  3 16-Mar-2023  2023 Unprovoked   AUSTRALIA     Western… surfing N       5m to …
##  4 06-Mar-2023  2023 Unprovoked   BRAZIL        Pernamb… swimmi… N       <NA>   
##  5 05-Mar-2023  2023 Unprovoked   BRAZIL        Pernamb… swimmi… N       <NA>   
##  6 02-Mar-2023  2023 Unprovoked   SEYCHELLES    Praslin… swimmi… <NA>    Lemon …
##  7 21-Feb-2023  2023 Unprovoked   BRAZIL        Pernamb… surfing N       <NA>   
##  8 19-Feb-2023  2023 Unprovoked   NEW CALEDONIA South P… swimmi… Y       Bull s…
##  9 19-Feb-2023  2023 Unprovoked   USA           Florida  surfing N       <NA>   
## 10 18-Feb-2023  2023 Questionable ARGENTINA     Patagon… <NA>    <NA>    <NA>   
## # … with 38,893 more rows, and abbreviated variable names ¹​activity, ²​fatal_y_n
…
